…
pups_data = read_csv("./data/FAS_pups.csv",
  col_types = "ciiiii")
pups_data = janitor::clean_names(pups_data)
```

# Select Function

``` r
select(litters_data, group, litter_number)
```

    ## # A tibble: 49 × 2
    ##    group litter_number  
    ##    <chr> <chr>          
    ##  1 Con7  #85            
    ##  2 Con7  #1/2/95/2      
    ##  3 Con7  #5/5/3/83/3-3  
    ##  4 Con7  #5/4/2/95/2    
    ##  5 Con7  #4/2/95/3-3    
    ##  6 Con7  #2/2/95/3-2    
    ##  7 Con7  #1/5/3/83/3-3/2
    ##  8 Con8  #3/83/3-3      
    ##  9 Con8  #2/95/3        
    ## 10 Con8  #3/5/2/2/95    
    ## # … with 39 more rows

``` r
select(litters_data, group, gd0_weight, gd18_weight)
```

    ## # A tibble: 49 × 3
    ##    group gd0_weight gd18_weight
    ##    <chr>      <dbl>       <dbl>
    ##  1 Con7        19.7        34.7
    ##  2 Con7        27          42  
    ##  3 Con7        26          41.4
    ##  4 Con7        28.5        44.1
    ##  5 Con7        NA          NA  
    ##  6 Con7        NA          NA  
    ##  7 Con7        NA          NA  
    ##  8 Con8        NA          NA  
    ##  9 Con8        NA          NA  
    ## 10 Con8        28.5        NA  
    ## # … with 39 more rows

``` r
select(pups_data, litter_number, sex, pd_ears)
```

    ## # A tibble: 313 × 3
    ##    litter_number   sex pd_ears
    ##    <chr>         <int>   <int>
    ##  1 #85               1       4
    ##  2 #85               1       4
    ##  3 #1/2/95/2         1       5
    ##  4 #1/2/95/2         1       5
    ##  5 #5/5/3/83/3-3     1       5
    ##  6 #5/5/3/83/3-3     1       5
    ##  7 #5/4/2/95/2       1      NA
    ##  8 #4/2/95/3-3       1       4
    ##  9 #4/2/95/3-3       1       4
    ## 10 #2/2/95/3-2       1       4
    ## # … with 303 more rows

``` r
relocate(litters_data, litter_number, pups_survive)
```

    ## # A tibble: 49 × 8
    ##    litter_number   pups_survive group gd0_weight gd18_weight gd_of_birth
    ##    <chr>                  <int> <chr>      <dbl>       <dbl>       <int>
    ##  1 #85                        3 Con7        19.7        34.7          20
    ##  2 #1/2/95/2                  7 Con7        27          42            19
    ##  3 #5/5/3/83/3-3              5 Con7        26          41.4          19
    ##  4 #5/4/2/95/2                4 Con7        28.5        44.1          19
    ##  5 #4/2/95/3-3                6 Con7        NA          NA            20
    ##  6 #2/2/95/3-2                4 Con7        NA          NA            20
    ##  7 #1/5/3/83/3-3/2            9 Con7        NA          NA            20
    ##  8 #3/83/3-3                  8 Con8        NA          NA            20
    ##  9 #2/95/3                    8 Con8        NA          NA            20
    ## 10 #3/5/2/2/95                8 Con8        28.5        NA            20
    ## # … with 39 more rows, and 2 more variables: pups_born_alive <int>,
    ## #   pups_dead_birth <int>

``` r
rename(litters_data, GROUP = group, LiTtEr_NuMbEr = litter_number)
```

    ## # A tibble: 49 × 8
    ##    GROUP LiTtEr_NuMbEr   gd0_weight gd18_weight gd_of_birth pups_born_alive
    ##    <chr> <chr>                <dbl>       <dbl>       <int>           <int>
    ##  1 Con7  #85                   19.7        34.7          20               3
    ##  2 Con7  #1/2/95/2             27          42            19               8
    ##  3 Con7  #5/5/3/83/3-3         26          41.4          19               6
    ##  4 Con7  #5/4/2/95/2           28.5        44.1          19               5
    ##  5 Con7  #4/2/95/3-3           NA          NA            20               6
    ##  6 Con7  #2/2/95/3-2           NA          NA            20               6
    ##  7 Con7  #1/5/3/83/3-3/2       NA          NA            20               9
    ##  8 Con8  #3/83/3-3             NA          NA            20               9
    ##  9 Con8  #2/95/3               NA          NA            20               8
    ## 10 Con8  #3/5/2/2/95           28.5        NA            20               8
    ## # … with 39 more rows, and 2 more variables: pups_dead_birth <int>,
    ## #   pups_survive <int>

# Filter

``` r
filter(litters_data, gd_of_birth == 20)
```

    ## # A tibble: 32 × 8
    ##    group litter_number   gd0_weight gd18_weight gd_of_birth pups_born_alive
    ##    <chr> <chr>                <dbl>       <dbl>       <int>           <int>
    ##  1 Con7  #85                   19.7        34.7          20               3
    ##  2 Con7  #4/2/95/3-3           NA          NA            20               6
    ##  3 Con7  #2/2/95/3-2           NA          NA            20               6
    ##  4 Con7  #1/5/3/83/3-3/2       NA          NA            20               9
    ##  5 Con8  #3/83/3-3             NA          NA            20               9
    ##  6 Con8  #2/95/3               NA          NA            20               8
    ##  7 Con8  #3/5/2/2/95           28.5        NA            20               8
    ##  8 Con8  #1/6/2/2/95-2         NA          NA            20               7
    ##  9 Con8  #3/5/3/83/3-3-2       NA          NA            20               8
    ## 10 Con8  #3/6/2/2/95-3         NA          NA            20               7
    ## # … with 22 more rows, and 2 more variables: pups_dead_birth <int>,
    ## #   pups_survive <int>
…
``` r
filter(litters_data, pups_survive != 4)
```

    ## # A tibble: 44 × 8
    ##    group litter_number   gd0_weight gd18_weight gd_of_birth pups_born_alive
    ##    <chr> <chr>                <dbl>       <dbl>       <int>           <int>
    ##  1 Con7  #85                   19.7        34.7          20               3
    ##  2 Con7  #1/2/95/2             27          42            19               8
    ##  3 Con7  #5/5/3/83/3-3         26          41.4          19               6
    ##  4 Con7  #4/2/95/3-3           NA          NA            20               6
    ##  5 Con7  #1/5/3/83/3-3/2       NA          NA            20               9
    ##  6 Con8  #3/83/3-3             NA          NA            20               9
    ##  7 Con8  #2/95/3               NA          NA            20               8
    ##  8 Con8  #3/5/2/2/95           28.5        NA            20               8
    ##  9 Con8  #5/4/3/83/3           28          NA            19               9
    ## 10 Con8  #1/6/2/2/95-2         NA          NA            20               7
    ## # … with 34 more rows, and 2 more variables: pups_dead_birth <int>,
    ## #   pups_survive <int>

``` r
filter(litters_data, !(group == "Con7"))
```

    ## # A tibble: 42 × 8
    ##    group litter_number   gd0_weight gd18_weight gd_of_birth pups_born_alive
    ##    <chr> <chr>                <dbl>       <dbl>       <int>           <int>
    ##  1 Con8  #3/83/3-3             NA          NA            20               9
    ##  2 Con8  #2/95/3               NA          NA            20               8
    ##  3 Con8  #3/5/2/2/95           28.5        NA            20               8
    ##  4 Con8  #5/4/3/83/3           28          NA            19               9
    ##  5 Con8  #1/6/2/2/95-2         NA          NA            20               7
    ##  6 Con8  #3/5/3/83/3-3-2       NA          NA            20               8
    ##  7 Con8  #2/2/95/2             NA          NA            19               5
    ##  8 Con8  #3/6/2/2/95-3         NA          NA            20               7
    ##  9 Mod7  #59                   17          33.4          19               8
    ## 10 Mod7  #103                  21.4        42.1          19               9
    ## # … with 32 more rows, and 2 more variables: pups_dead_birth <int>,
    ## #   pups_survive <int>
…
# Mutate

Let’s add or change things:

``` r
mutate(
  litters_data, 
  weight_change = gd18_weight - gd0_weight,
  group = str_to_lower(group)
  )
```

    ## # A tibble: 49 × 9
    ##    group litter_number   gd0_weight gd18_weight gd_of_birth pups_born_alive
    ##    <chr> <chr>                <dbl>       <dbl>       <int>           <int>
    ##  1 con7  #85                   19.7        34.7          20               3
    ##  2 con7  #1/2/95/2             27          42            19               8
    ##  3 con7  #5/5/3/83/3-3         26          41.4          19               6
    ##  4 con7  #5/4/2/95/2           28.5        44.1          19               5
    ##  5 con7  #4/2/95/3-3           NA          NA            20               6
    ##  6 con7  #2/2/95/3-2           NA          NA            20               6
    ##  7 con7  #1/5/3/83/3-3/2       NA          NA            20               9
    ##  8 con8  #3/83/3-3             NA          NA            20               9
    ##  9 con8  #2/95/3               NA          NA            20               8
    ## 10 con8  #3/5/2/2/95           28.5        NA            20               8
    ## # … with 39 more rows, and 3 more variables: pups_dead_birth <int>,
    ## #   pups_survive <int>, weight_change <dbl>

## Arrange

``` r
arrange(litters_data, desc(gd0_weight))
```

    ## # A tibble: 49 × 8
    ##    group litter_number gd0_weight gd18_weight gd_of_birth pups_born_alive
    ##    <chr> <chr>              <dbl>       <dbl>       <int>           <int>
    ##  1 Mod8  #82/4               33.4        52.7          20               8
    ##  2 Con7  #5/4/2/95/2         28.5        44.1          19               5
    ##  3 Con8  #3/5/2/2/95         28.5        NA            20               8
    ##  4 Mod8  #2/95/2             28.5        44.5          20               9
    ##  5 Con8  #5/4/3/83/3         28          NA            19               9
    ##  6 Mod7  #3/82/3-2           28          45.9          20               5
    ##  7 Mod8  #7/110/3-2          27.5        46            19               8
    ##  8 Con7  #1/2/95/2           27          42            19               8
    ##  9 Mod8  #7/82-3-2           26.9        43.2          20               7
    ## 10 Con7  #5/5/3/83/3-3       26          41.4          19               6
    ## # … with 39 more rows, and 2 more variables: pups_dead_birth <int>,
    ## #   pups_survive <int>

``` r
arrange(litters_data, gd_of_birth, gd0_weight)
```

    ## # A tibble: 49 × 8
    ##    group litter_number gd0_weight gd18_weight gd_of_birth pups_born_alive
    ##    <chr> <chr>              <dbl>       <dbl>       <int>           <int>
    ##  1 Mod7  #59                 17          33.4          19               8
    ##  2 Mod7  #62                 19.5        35.9          19               7
    ##  3 Mod7  #103                21.4        42.1          19               9
    ##  4 Mod7  #5/3/83/5-2         22.6        37            19               5
    ##  5 Mod7  #4/2/95/2           23.5        NA            19               9
    ##  6 Low7  #112                23.9        40.5          19               6
    ##  7 Mod7  #94/2               24.4        42.9          19               7
    ##  8 Low8  #79                 25.4        43.8          19               8
    ##  9 Con7  #5/5/3/83/3-3       26          41.4          19               6
    ## 10 Con7  #1/2/95/2           27          42            19               8
    ## # … with 39 more rows, and 2 more variables: pups_dead_birth <int>,
    ## #   pups_survive <int>
